{
    "tg_server": "https://beta.textgridrep.org",
    "tglab_server": "https://textgridlab.org",
    "tg_server_sid": "https://textgridlab.org/1.0/Shibboleth.sso/Login?target=/1.0/secure/TextGrid-WebAuth.php?authZinstance=textgrid-esx2.gwdg.de",
    "// tg_server": "https://test.textgridrep.org",
    "// tglab_server": "https://test.textgridlab.org",
    "// tg_server_sid": "https://test.textgridlab.org/1.0/Shibboleth.sso/Login?target=/1.0/secure/TextGrid-WebAuth.php?authZinstance=test.textgridlab.org"
}